…
    ## [1] 923

Keep only rows where the PG rating is “PG-13” and which belong to the
“Comedy”, “Horror”, or “Drama” genre.

``` r
filter(movies, (mpaa_rating == "PG-13" & genre == c("Comedy","Horror", "Drama")))
```

    ## Warning in genre == c("Comedy", "Horror", "Drama"): longer object length is not
    ## a multiple of shorter object length

    ## # A tibble: 248 × 8
    ##    release_date movie            production_budg… domestic_gross worldwide_gross
    ##           <dbl> <chr>                       <dbl>          <dbl>           <dbl>
    ##  1         2008 The Curious Cas…        160000000      127509326       329631958
    ##  2         2014 Exodus Gods and…        140000000       65014513       268314513
    ##  3         2014 Noah                    130000000      101200044       352831065
    ##  4         2008 Australia               130000000       49554002       215080810
    ##  5         1997 Dante's Peak            115000000       67163857       178200000
    ##  6         2010 The Other Guys          100000000      119219978       170936470
    ##  7         2001 Artificial Inte…         90000000       78616689       235900000
    ##  8         2017 The Promise              90000000        8224288        10551417
    ##  9         2003 Seabiscuit               86000000      120277854       148715342
    ## 10         2005 Memoirs of a Ge…         85000000       57010853       161510853
    ## # … with 238 more rows, and 3 more variables: distributor <chr>,
    ## #   mpaa_rating <chr>, genre <chr>

## Exercise

Move the genre column to the front.

``` r
select(movies, genre, everything())
```

    ## # A tibble: 3,401 × 8
    ##    genre     release_date movie  production_budg… domestic_gross worldwide_gross
    ##    <chr>            <dbl> <chr>             <dbl>          <dbl>           <dbl>
    ##  1 Comedy            2007 Evan …        175000000      100289690       174131329
    ##  2 Action            1995 Water…        175000000       88246220       264246220
    ##  3 Adventure         2017 King …        175000000       39175066       139950708
    ##  4 Action            2013 47 Ro…        175000000       38362475       151716815
    ##  5 Action            2018 Juras…        170000000      416769345      1304866322
    ##  6 Action            2014 Guard…        170000000      333172112       771051335
    ##  7 Action            2010 Iron …        170000000      312433331       621156389
    ##  8 Action            2014 Capta…        170000000      259746958       714401889
    ##  9 Adventure         2014 Dawn …        170000000      208545589       710644566
    ## 10 Adventure         2004 The P…        170000000      186493587       310634169
    ## # … with 3,391 more rows, and 2 more variables: distributor <chr>,
    ## #   mpaa_rating <chr>

Select all columns in the bechdel data set that measure movie budget.

``` r
select(bechdel, contains("budget"))
```

    ## # A tibble: 1,794 × 2
    ##       budget budget_2013
    ##        <dbl>       <dbl>
    ##  1  13000000    13000000
    ##  2  45000000    45658735
    ##  3  20000000    20000000
    ##  4  61000000    61000000
    ##  5  40000000    40000000
    ##  6 225000000   225000000
    ##  7  92000000    92000000
    ##  8  12000000    12000000
    ##  9  13000000    13000000
    ## 10 130000000   130000000
    ## # … with 1,784 more rows

Remove all columns from the bechdel data set that indicate values
adjusted to 2013 prices.

``` r
select(bechdel, -ends_with("2013"))
```

    ## # A tibble: 1,794 × 13
    ##     year decade_code title  director writer   plot    clean_test budget domgross
    ##    <dbl>       <dbl> <chr>  <chr>    <chr>    <chr>   <chr>       <dbl>    <dbl>
    ##  1  2013           1 21 &a… <NA>      <NA>    <NA>    notalk     1.3 e7 25682380
    ##  2  2012           1 Dredd… <NA>      <NA>    <NA>    ok         4.5 e7 13414714
    ##  3  2013           1 12 Ye… Steve M… "John R… In the… notalk     2   e7 53107035
    ##  4  2013           1 2 Guns Baltasa… "Blake … A DEA … notalk     6.1 e7 75612460
    ##  5  2013           1 42     Brian H… "Brian … The li… men        4   e7 95020213
    ##  6  2013           1 47 Ro… Carl Ri… "Chris … A band… men        2.25e8 38362475
    ##  7  2013           1 A Goo… John Mo… "Skip W… John M… notalk     9.2 e7 67349198
    ##  8  2013           1 About… Richard… "Richar… At the… ok         1.2 e7 15323921
    ##  9  2013           1 Admis… Paul We… "Karen … A Prin… ok         1.3 e7 18007317
    ## 10  2013           1 After… M. Nigh… "Gary W… A cras… notalk     1.3 e8 60522097
    ## # … with 1,784 more rows, and 4 more variables: intgross <dbl>,
    ## #   metascore <dbl>, imdb_rating <dbl>, awards <chr>

## Exercise

Create a column for the bechdel data set that computes how old the
movies are (think about last week’s session to compute our ages for
inspiration). Move that column to the front of the data set.

``` r
mutate(.data = bechdel,how_old = (2021-bechdel$year)) %>% 
  select(how_old,everything())
```

    ## # A tibble: 1,794 × 17
    ##    how_old  year decade_code title  director  writer   plot    clean_test budget
    ##      <dbl> <dbl>       <dbl> <chr>  <chr>     <chr>    <chr>   <chr>       <dbl>
    ##  1       8  2013           1 21 &a… <NA>       <NA>    <NA>    notalk     1.3 e7
    ##  2       9  2012           1 Dredd… <NA>       <NA>    <NA>    ok         4.5 e7
    ##  3       8  2013           1 12 Ye… Steve Mc… "John R… In the… notalk     2   e7
    ##  4       8  2013           1 2 Guns Baltasar… "Blake … A DEA … notalk     6.1 e7
    ##  5       8  2013           1 42     Brian He… "Brian … The li… men        4   e7
    ##  6       8  2013           1 47 Ro… Carl Rin… "Chris … A band… men        2.25e8
    ##  7       8  2013           1 A Goo… John Moo… "Skip W… John M… notalk     9.2 e7
    ##  8       8  2013           1 About… Richard … "Richar… At the… ok         1.2 e7
    ##  9       8  2013           1 Admis… Paul Wei… "Karen … A Prin… ok         1.3 e7
    ## 10       8  2013           1 After… M. Night… "Gary W… A cras… notalk     1.3 e8
    ## # … with 1,784 more rows, and 8 more variables: domgross <dbl>, intgross <dbl>,
    ## #   budget_2013 <dbl>, domgross_2013 <dbl>, intgross_2013 <dbl>,
    ## #   metascore <dbl>, imdb_rating <dbl>, awards <chr>

Compute the overall boxoffice success adjusted to 2013 prices (made up
of domgross_2013 and intgross_2013) for each movie in the bechdel data
set.

``` r
mutate(.data = bechdel, overall = domgross_2013 + intgross_2013) %>% 
  select(overall,everything())
```

    ## # A tibble: 1,794 × 17
    ##      overall  year decade_code title  director  writer  plot   clean_test budget
    ##        <dbl> <dbl>       <dbl> <chr>  <chr>     <chr>   <chr>  <chr>       <dbl>
    ##  1  67878146  2013           1 21 &a… <NA>       <NA>   <NA>   notalk     1.3 e7
    ##  2  55078343  2012           1 Dredd… <NA>       <NA>   <NA>   ok         4.5 e7
    ##  3 211714070  2013           1 12 Ye… Steve Mc… "John … In th… notalk     2   e7
    ##  4 208105475  2013           1 2 Guns Baltasar… "Blake… A DEA… notalk     6.1 e7
    ##  5 190040426  2013           1 42     Brian He… "Brian… The l… men        4   e7
    ##  6 184166317  2013           1 47 Ro… Carl Rin… "Chris… A ban… men        2.25e8
    ##  7 371598396  2013           1 A Goo… John Moo… "Skip … John … notalk     9.2 e7
    ##  8 102648667  2013           1 About… Richard … "Richa… At th… ok         1.2 e7
    ##  9  36014634  2013           1 Admis… Paul Wei… "Karen… A Pri… ok         1.3 e7
    ## 10 304895295  2013           1 After… M. Night… "Gary … A cra… notalk     1.3 e8
    ## # … with 1,784 more rows, and 8 more variables: domgross <dbl>, intgross <dbl>,
    ## #   budget_2013 <dbl>, domgross_2013 <dbl>, intgross_2013 <dbl>,
    ## #   metascore <dbl>, imdb_rating <dbl>, awards <chr>

Create a column called “pass” that says TRUE when the “clean_test”
variable for an observation is “ok” and FALSE when the variable is
anything else. THink of the logical operators that were introduced
above.

``` r
mutate(bechdel, pass= clean_test == "ok") %>% 
  select(pass,everything())
```

    ## # A tibble: 1,794 × 17
    ##    pass   year decade_code title  director  writer    plot     clean_test budget
    ##    <lgl> <dbl>       <dbl> <chr>  <chr>     <chr>     <chr>    <chr>       <dbl>
    ##  1 FALSE  2013           1 21 &a… <NA>       <NA>     <NA>     notalk     1.3 e7
    ##  2 TRUE   2012           1 Dredd… <NA>       <NA>     <NA>     ok         4.5 e7
    ##  3 FALSE  2013           1 12 Ye… Steve Mc… "John Ri… In the … notalk     2   e7
    ##  4 FALSE  2013           1 2 Guns Baltasar… "Blake M… A DEA a… notalk     6.1 e7
    ##  5 FALSE  2013           1 42     Brian He… "Brian H… The lif… men        4   e7
    ##  6 FALSE  2013           1 47 Ro… Carl Rin… "Chris M… A band … men        2.25e8
    ##  7 FALSE  2013           1 A Goo… John Moo… "Skip Wo… John Mc… notalk     9.2 e7
    ##  8 TRUE   2013           1 About… Richard … "Richard… At the … ok         1.2 e7
    ##  9 TRUE   2013           1 Admis… Paul Wei… "Karen C… A Princ… ok         1.3 e7
    ## 10 FALSE  2013           1 After… M. Night… "Gary Wh… A crash… notalk     1.3 e8
    ## # … with 1,784 more rows, and 8 more variables: domgross <dbl>, intgross <dbl>,
    ## #   budget_2013 <dbl>, domgross_2013 <dbl>, intgross_2013 <dbl>,
    ## #   metascore <dbl>, imdb_rating <dbl>, awards <chr>
## Exercise

Filter only movies between 2010 and 2013 and look at the average
domestic gross per year and genre (input both variables in the
group_by-function at the same time).

``` r
filter(movies, release_date >= 2010 & release_date <= 2013) %>%
  group_by(release_date, genre) %>% 
  summarise(mean(domestic_gross))
```

    ## `summarise()` has grouped output by 'release_date'. You can override using the `.groups` argument.

    ## # A tibble: 26 × 3
    ## # Groups:   release_date [4]
    ##    release_date genre     `mean(domestic_gross)`
    ##           <dbl> <chr>                      <dbl>
    ##  1         2010 Action                 62980270.
    ##  2         2010 Adventure              86853408.
    ##  3         2010 Comedy                 42734870.
    ##  4         2010 Drama                  25831881.
    ##  5         2010 Horror                 30573158.
    ##  6         2010 PG                      5000000 
    ##  7         2010 R                      13000000 
    ##  8         2011 Action                 69691975.
    ##  9         2011 Adventure              72289049.
    ## 10         2011 Comedy                 44071370.
    ## # … with 16 more rows

Compute the overall returns of movies per year starting 1990

``` r
filter(.data = movies, release_date >= 1990) %>% 
  mutate(overall_returns = domestic_gross + worldwide_gross) %>% 
  select(overall_returns, everything())
```

    ## # A tibble: 3,075 × 9
    ##    overall_returns release_date movie            production_budg… domestic_gross
    ##              <dbl>        <dbl> <chr>                       <dbl>          <dbl>
    ##  1       274421019         2007 Evan Almighty           175000000      100289690
    ##  2       352492440         1995 Waterworld              175000000       88246220
    ##  3       179125774         2017 King Arthur Leg…        175000000       39175066
    ##  4       190079290         2013 47 Ronin                175000000       38362475
    ##  5      1721635667         2018 Jurassic World …        170000000      416769345
    ##  6      1104223447         2014 Guardians of th…        170000000      333172112
    ##  7       933589720         2010 Iron Man 2              170000000      312433331
    ##  8       974148847         2014 Captain America…        170000000      259746958
    ##  9       919190155         2014 Dawn of the Pla…        170000000      208545589
    ## 10       497127756         2004 The Polar Expre…        170000000      186493587
    ## # … with 3,065 more rows, and 4 more variables: worldwide_gross <dbl>,
    ## #   distributor <chr>, mpaa_rating <chr>, genre <chr>
…
